homework-2
…
3. Cross Validation for ridge_regression

The function cv_ridge_regression returns a list containing a tibble detailing the RMSEs, standard error of the means, and CI bounds; a plot of the lambda values tested and their corresponding RMSEs; as well as the lambda with the lowest RMSE, lambda_min, and the lambda 1 standard error higher, lambda_1se.

data("iris")
cv_ridge_regression(Sepal.Length ~ ., iris)
#> $cv_table
#> # A tibble: 34 x 5
#>     mean     sd lambda upper lower
#>    <dbl>  <dbl>  <dbl> <dbl> <dbl>
#>  1 0.322 0.0371   0    0.324 0.320
#>  2 0.322 0.0389   0.03 0.324 0.319
#>  3 0.322 0.0406   0.06 0.325 0.320
#>  4 0.324 0.0419   0.09 0.326 0.321
#>  5 0.325 0.0431   0.12 0.328 0.323
#>  6 0.327 0.0440   0.15 0.329 0.324
#>  7 0.329 0.0447   0.18 0.331 0.326
#>  8 0.330 0.0453   0.21 0.333 0.327
#>  9 0.332 0.0458   0.24 0.334 0.329
#> 10 0.333 0.0462   0.27 0.336 0.331
#> # … with 24 more rows
…
